0	2.9896173e+30
0	2.99260095e+30
0	2.9955846e+30
0	2.99856825e+30
0	3.0015519e+30
0	3.00453555e+30
0	3.0075192e+30
0	3.01050285e+30
0	3.0134865e+30
0	3.01647015e+30
0	3.0194538e+30
0	3.02243745e+30
0	3.0254211e+30
0	3.02840475e+30
0	3.0313884e+30
0	3.03437205e+30
0	3.0373557e+30
0	3.04033935e+30
0	3.043323e+30
0	3.04630665e+30
0	3.0492903e+30
0	3.05227395e+30
0	3.0552576e+30
0	3.05824125e+30
0	3.0612249e+30
0	3.06420855e+30
0	3.0671922e+30
0	3.07017585e+30
0	3.0731595e+30
0	3.07614315e+30
0	3.0791268e+30
0	3.08211045e+30
0	3.0850941e+30
0	3.08807775e+30
0	3.0910614e+30
0	3.09404505e+30
0	3.0970287e+30
0	3.10001235e+30
0	3.102996e+30
0	3.10597965e+30
0	3.1089633e+30
0	3.11194695e+30
0	3.1149306e+30
0	3.11791425e+30
0	3.1208979e+30
0	3.12388155e+30
0	3.1268652e+30
0	3.12984885e+30
0	3.1328325e+30
0	3.13581615e+30
0	3.1387998e+30
0	3.14178345e+30
0	3.1447671e+30
0	3.14775075e+30
0	3.1507344e+30
0	3.15371805e+30
0	3.1567017e+30
0	3.15968535e+30
0	3.162669e+30
0	3.16565265e+30
0	3.1686363e+30
0	3.17161995e+30
0	3.1746036e+30
0	3.17758725e+30
0	3.1805709e+30
0	3.18355455e+30
0	3.1865382e+30
0	3.18952185e+30
0	3.1925055e+30
0	3.19548915e+30
0	3.1984728e+30
0	3.20145645e+30
0	3.2044401e+30
0	3.20742375e+30
0	3.2104074e+30
0	3.21339105e+30
0	3.2163747e+30
0	3.21935835e+30
0	3.222342e+30
0	3.22532565e+30
0	3.2283093e+30
0	3.23129295e+30
0	3.2342766e+30
0	3.23726025e+30
0	3.2402439e+30
0	3.24322755e+30
0	3.2462112e+30
0	3.24919485e+30
0	3.2521785e+30
0	3.25516215e+30
0	3.2581458e+30
0	3.26112945e+30
0	3.2641131e+30
0	3.26709675e+30
0	3.2700804e+30
0	3.27306405e+30
0	3.2760477e+30
0	3.27903135e+30
0	3.282015e+30
0	3.28499865e+30
0	3.2879823e+30
0	3.29096595e+30
0	3.2939496e+30
0	3.29693325e+30
0	3.2999169e+30
0	3.30290055e+30
0	3.3058842e+30
0	3.30886785e+30
0	3.3118515e+30
0	3.31483515e+30
0	3.3178188e+30
0	3.32080245e+30
0	3.3237861e+30
0	3.32676975e+30
0	3.3297534e+30
0	3.33273705e+30
0	3.3357207e+30
0	3.33870435e+30
0	3.341688e+30
0	3.34467165e+30
0	3.3476553e+30
0	3.35063895e+30
0	3.3536226e+30
0	3.35660625e+30
0	3.3595899e+30
0	3.36257355e+30
0	3.3655572e+30
0	3.36854085e+30
0	3.3715245e+30
0	3.37450815e+30
0	3.3774918e+30
0	3.38047545e+30
0	3.3834591e+30
0	3.38644275e+30
0	3.3894264e+30
0	3.39241005e+30
0	3.3953937e+30
0	3.39837735e+30
0	3.401361e+30
0	3.40434465e+30
0	3.4073283e+30
0	3.41031195e+30
0	3.4132956e+30
0	3.41627925e+30
0	3.4192629e+30
0	3.42224655e+30
0	3.4252302e+30
0	3.42821385e+30
0	3.4311975e+30
0	3.43418115e+30
0	3.4371648e+30
0	3.44014845e+30
0	3.4431321e+30
0	3.44611575e+30
0	3.4490994e+30
0	3.45208305e+30
0	3.4550667e+30
0	3.45805035e+30
0	3.461034e+30
0	3.46401765e+30
0	3.4670013e+30
0	3.46998495e+30
0	3.4729686e+30
0	3.47595225e+30
0	3.4789359e+30
0	3.48191955e+30
0	3.4849032e+30
0	3.48788685e+30
0	3.4908705e+30
0	3.49385415e+30
0	3.4968378e+30
0	3.49982145e+30
0	3.5028051e+30
0	3.50578875e+30
0	3.5087724e+30
0	3.51175605e+30
0	3.5147397e+30
0	3.51772335e+30
0	3.520707e+30
0	3.52369065e+30
0	3.5266743e+30
0	3.52965795e+30
0	3.5326416e+30
0	3.53562525e+30
0	3.5386089e+30
0	3.54159255e+30
0	3.5445762e+30
0	3.54755985e+30
0	3.5505435e+30
0	3.55352715e+30
0	3.5565108e+30
0	3.55949445e+30
0	3.5624781e+30
0	3.56546175e+30
0	3.5684454e+30
0	3.57142905e+30
0	3.5744127e+30
0	3.57739635e+30
0	3.58038e+30
0	3.58336365e+30
0	3.5863473e+30
0	3.58933095e+30
0	3.5923146e+30
0	3.59529825e+30
0	3.5982819e+30
0	3.60126555e+30
0	3.6042492e+30
0	3.60723285e+30
0	3.6102165e+30
0	3.61320015e+30
0	3.6161838e+30
0	3.61916745e+30
0	3.6221511e+30
0	3.62513475e+30
0	3.6281184e+30
0	3.63110205e+30
0	3.6340857e+30
0	3.63706935e+30
0	3.640053e+30
0	3.64303665e+30
0	3.6460203e+30
0	3.64900395e+30
0	3.6519876e+30
0	3.65497125e+30
0	3.6579549e+30
0	3.66093855e+30
0	3.6639222e+30
0	3.66690585e+30
0	3.6698895e+30
0	3.67287315e+30
0	3.6758568e+30
0	3.67884045e+30
0	3.6818241e+30
0	3.68480775e+30
0	3.6877914e+30
0	3.69077505e+30
0	3.6937587e+30
0	3.69674235e+30
0	3.699726e+30
0	3.70270965e+30
0	3.7056933e+30
0	3.70867695e+30
0	3.7116606e+30
0	3.71464425e+30
0	3.7176279e+30
0	3.72061155e+30
0	3.7235952e+30
0	3.72657885e+30
0	3.7295625e+30
0	3.73254615e+30
0	3.7355298e+30
0	3.73851345e+30
0	3.7414971e+30
0	3.74448075e+30
0	3.7474644e+30
0	3.75044805e+30
0	3.7534317e+30
0	3.75641535e+30
0	3.759399e+30
0	3.76238265e+30
0	3.7653663e+30
0	3.76834995e+30
0	3.7713336e+30
0	3.77431725e+30
0	3.7773009e+30
0	3.78028455e+30
0	3.7832682e+30
0	3.78625185e+30
0	3.7892355e+30
0	3.79221915e+30
0	3.7952028e+30
0	3.79818645e+30
0	3.8011701e+30
0	3.80415375e+30
0	3.8071374e+30
0	3.81012105e+30
0	3.8131047e+30
0	3.81608835e+30
0	3.819072e+30
0	3.82205565e+30
0	3.8250393e+30
0	3.82802295e+30
0	3.8310066e+30
0	3.83399025e+30
0	3.8369739e+30
0	3.83995755e+30
0	3.8429412e+30
0	3.84592485e+30
0	3.8489085e+30
0	3.85189215e+30
0	3.8548758e+30
0	3.85785945e+30
0	3.8608431e+30
0	3.86382675e+30
0	3.8668104e+30
0	3.86979405e+30
0	3.8727777e+30
0	3.87576135e+30
0	3.878745e+30
0	3.88172865e+30
0	3.8847123e+30
0	3.88769595e+30
0	3.8906796e+30
0	3.89366325e+30
0	3.8966469e+30
0	3.89963055e+30
0	3.9026142e+30
0	3.90559785e+30
0	3.9085815e+30
0	3.91156515e+30
0	3.9145488e+30
0	3.91753245e+30
0	3.9205161e+30
0	3.92349975e+30
0	3.9264834e+30
0	3.92946705e+30
0	3.9324507e+30
0	3.93543435e+30
0	3.938418e+30
0	3.94140165e+30
0	3.9443853e+30
0	3.94736895e+30
0	3.9503526e+30
0	3.95333625e+30
0	3.9563199e+30
0	3.95930355e+30
0	3.9622872e+30
0	3.96527085e+30
0	3.9682545e+30
0	3.97123815e+30
0	3.9742218e+30
0	3.97720545e+30
0	3.9801891e+30
0	3.98317275e+30
0	3.9861564e+30
0	3.98914005e+30
0	3.9921237e+30
0	3.99510735e+30
0	3.998091e+30
0	4.00107465e+30
0	4.0040583e+30
0	4.00704195e+30
0	4.0100256e+30
0	4.01300925e+30
0	4.0159929e+30
0	4.01897655e+30
0	4.0219602e+30
0	4.02494385e+30
0	4.0279275e+30
0	4.03091115e+30
0	4.0338948e+30
0	4.03687845e+30
0	4.0398621e+30
0	4.04284575e+30
0	4.0458294e+30
0	4.04881305e+30
0	4.0517967e+30
0	4.05478035e+30
0	4.057764e+30
0	4.06074765e+30
0	4.0637313e+30
0	4.06671495e+30
0	4.0696986e+30
0	4.07268225e+30
0	4.0756659e+30
0	4.07864955e+30
0	4.0816332e+30
0	4.08461685e+30
0	4.0876005e+30
0	4.09058415e+30
0	4.0935678e+30
0	4.09655145e+30
0	4.0995351e+30
0	4.10251875e+30
0	4.1055024e+30
0	4.10848605e+30
0	4.1114697e+30
0	4.11445335e+30
0	4.117437e+30
0	4.12042065e+30
0	4.1234043e+30
0	4.12638795e+30
0	4.1293716e+30
0	4.13235525e+30
0	4.1353389e+30
0	4.13832255e+30
0	4.1413062e+30
0	4.14428985e+30
0	4.1472735e+30
0	4.15025715e+30
0	4.1532408e+30
0	4.15622445e+30
0	4.1592081e+30
0	4.16219175e+30
0	4.1651754e+30
0	4.16815905e+30
0	4.1711427e+30
0	4.17412635e+30
0	4.17711e+30
0	4.18009365e+30
0	4.1830773e+30
0	4.18606095e+30
0	4.1890446e+30
0	4.19202825e+30
0	4.1950119e+30
0	4.19799555e+30
0	4.2009792e+30
0	4.20396285e+30
0	4.2069465e+30
0	4.20993015e+30
0	4.2129138e+30
0	4.21589745e+30
0	4.2188811e+30
0	4.22186475e+30
0	4.2248484e+30
0	4.22783205e+30
0	4.2308157e+30
0	4.23379935e+30
0	4.236783e+30
0	4.23976665e+30
0	4.2427503e+30
0	4.24573395e+30
0	4.2487176e+30
0	4.25170125e+30
0	4.2546849e+30
0	4.25766855e+30
0	4.2606522e+30
0	4.26363585e+30
0	4.2666195e+30
0	4.26960315e+30
0	4.2725868e+30
0	4.27557045e+30
0	4.2785541e+30
0	4.28153775e+30
0	4.2845214e+30
0	4.28750505e+30
0	4.2904887e+30
0	4.29347235e+30
0	4.296456e+30
0	4.29943965e+30
0	4.3024233e+30
0	4.30540695e+30
0	4.3083906e+30
0	4.31137425e+30
0	4.3143579e+30
0	4.31734155e+30
0	4.3203252e+30
0	4.32330885e+30
0	4.3262925e+30
0	4.32927615e+30
0	4.3322598e+30
0	4.33524345e+30
0	4.3382271e+30
0	4.34121075e+30
0	4.3441944e+30
0	4.34717805e+30
0	4.3501617e+30
0	4.35314535e+30
0	4.356129e+30
0	4.35911265e+30
0	4.3620963e+30
0	4.36507995e+30
0	4.3680636e+30
0	4.37104725e+30
0	4.3740309e+30
0	4.37701455e+30
0	4.3799982e+30
0	4.38298185e+30
0	4.3859655e+30
0	4.38894915e+30
0	4.3919328e+30
0	4.39491645e+30
0	4.3979001e+30
0	4.40088375e+30
0	4.4038674e+30
0	4.40685105e+30
0	4.4098347e+30
0	4.41281835e+30
0	4.415802e+30
0	4.41878565e+30
0	4.4217693e+30
0	4.42475295e+30
0	4.4277366e+30
0	4.43072025e+30
0	4.4337039e+30
0	4.43668755e+30
0	4.4396712e+30
0	4.44265485e+30
0	4.4456385e+30
0	4.44862215e+30
0	4.4516058e+30
0	4.45458945e+30
0	4.4575731e+30
0	4.46055675e+30
0	4.4635404e+30
0	4.46652405e+30
0	4.4695077e+30
0	4.47249135e+30
0	4.475475e+30
0	4.47845865e+30
0	4.4814423e+30
0	4.48442595e+30
0	4.4874096e+30
0	4.49039325e+30
0	4.4933769e+30
0	4.49636055e+30
0	4.4993442e+30
0	4.50232785e+30
0	4.5053115e+30
0	4.50829515e+30
0	4.5112788e+30
0	4.51426245e+30
0	4.5172461e+30
0	4.52022975e+30
0	4.5232134e+30
0	4.52619705e+30
0	4.5291807e+30
0	4.53216435e+30
0	4.535148e+30
0	4.53813165e+30
0	4.5411153e+30
0	4.54409895e+30
0	4.5470826e+30
0	4.55006625e+30
0	4.5530499e+30
0	4.55603355e+30
0	4.5590172e+30
0	4.56200085e+30
0	4.5649845e+30
0	4.56796815e+30
0	4.5709518e+30
0	4.57393545e+30
0	4.5769191e+30
0	4.57990275e+30
0	4.5828864e+30
0	4.58587005e+30
0	4.5888537e+30
0	4.59183735e+30
0	4.594821e+30
0	4.59780465e+30
0	4.6007883e+30
0	4.60377195e+30
0	4.6067556e+30
0	4.60973925e+30
0	4.6127229e+30
0	4.61570655e+30
0	4.6186902e+30
0	4.62167385e+30
0	4.6246575e+30
0	4.62764115e+30
0	4.6306248e+30
0	4.63360845e+30
0	4.6365921e+30
0	4.63957575e+30
0	4.6425594e+30
0	4.64554305e+30
0	4.6485267e+30
0	4.65151035e+30
0	4.654494e+30
0	4.65747765e+30
0	4.6604613e+30
0	4.66344495e+30
0	4.6664286e+30
0	4.66941225e+30
0	4.6723959e+30
0	4.67537955e+30
0	4.6783632e+30
0	4.68134685e+30
0	4.6843305e+30
0	4.68731415e+30
0	4.6902978e+30
0	4.69328145e+30
0	4.6962651e+30
0	4.69924875e+30
0	4.7022324e+30
0	4.70521605e+30
0	4.7081997e+30
0	4.71118335e+30
0	4.714167e+30
0	4.71715065e+30
0	4.7201343e+30
0	4.72311795e+30
0	4.7261016e+30
0	4.72908525e+30
0	4.7320689e+30
0	4.73505255e+30
0	4.7380362e+30
0	4.74101985e+30
0	4.7440035e+30
0	4.74698715e+30
0	4.7499708e+30
0	4.75295445e+30
0	4.7559381e+30
0	4.75892175e+30
0	4.7619054e+30
0	4.76488905e+30
0	4.7678727e+30
0	4.77085635e+30
0	4.77384e+30
0	4.77682365e+30
0	4.7798073e+30
0	4.78279095e+30
0	4.7857746e+30
0	4.78875825e+30
0	4.7917419e+30
0	4.79472555e+30
0	4.7977092e+30
0	4.80069285e+30
0	4.8036765e+30
0	4.80666015e+30
0	4.8096438e+30
0	4.81262745e+30
0	4.8156111e+30
0	4.81859475e+30
0	4.8215784e+30
0	4.82456205e+30
0	4.8275457e+30
0	4.83052935e+30
0	4.833513e+30
0	4.83649665e+30
0	4.8394803e+30
0	4.84246395e+30
0	4.8454476e+30
0	4.84843125e+30
0	4.8514149e+30
0	4.85439855e+30
0	4.8573822e+30
0	4.86036585e+30
0	4.8633495e+30
0	4.86633315e+30
0	4.8693168e+30
0	4.87230045e+30
0	4.8752841e+30
0	4.87826775e+30
0	4.8812514e+30
0	4.88423505e+30
0	4.8872187e+30
0	4.89020235e+30
0	4.893186e+30
0	4.89616965e+30
0	4.8991533e+30
0	4.90213695e+30
0	4.9051206e+30
0	4.90810425e+30
0	4.9110879e+30
0	4.91407155e+30
0	4.9170552e+30
0	4.92003885e+30
0	4.9230225e+30
0	4.92600615e+30
0	4.9289898e+30
0	4.93197345e+30
0	4.9349571e+30
0	4.93794075e+30
0	4.9409244e+30
0	4.94390805e+30
0	4.9468917e+30
0	4.94987535e+30
0	4.952859e+30
0	4.95584265e+30
0	4.9588263e+30
0	4.96180995e+30
0	4.9647936e+30
0	4.96777725e+30
0	4.9707609e+30
0	4.97374455e+30
0	4.9767282e+30
0	4.97971185e+30
0	4.9826955e+30
0	4.98567915e+30
0	4.9886628e+30
0	4.99164645e+30
0	4.9946301e+30
0	4.99761375e+30
0	5.0005974e+30
0	5.00358105e+30
0	5.0065647e+30
0	5.00954835e+30
0	5.012532e+30
0	5.01551565e+30
0	5.0184993e+30
0	5.02148295e+30
0	5.0244666e+30
0	5.02745025e+30
0	5.0304339e+30
0	5.03341755e+30
0	5.0364012e+30
0	5.03938485e+30
0	5.0423685e+30
0	5.04535215e+30
0	5.0483358e+30
0	5.05131945e+30
0	5.0543031e+30
0	5.05728675e+30
0	5.0602704e+30
0	5.06325405e+30
0	5.0662377e+30
0	5.06922135e+30
0	5.072205e+30
0	5.07518865e+30
0	5.0781723e+30
0	5.08115595e+30
0	5.0841396e+30
0	5.08712325e+30
0	5.0901069e+30
0	5.09309055e+30
0	5.0960742e+30
0	5.09905785e+30
0	5.1020415e+30
0	5.10502515e+30
0	5.1080088e+30
0	5.11099245e+30
0	5.1139761e+30
0	5.11695975e+30
0	5.1199434e+30
0	5.12292705e+30
0	5.1259107e+30
0	5.12889435e+30
0	5.131878e+30
0	5.13486165e+30
0	5.1378453e+30
0	5.14082895e+30
0	5.1438126e+30
0	5.14679625e+30
0	5.1497799e+30
0	5.15276355e+30
0	5.1557472e+30
0	5.15873085e+30
0	5.1617145e+30
0	5.16469815e+30
0	5.1676818e+30
0	5.17066545e+30
0	5.1736491e+30
0	5.17663275e+30
0	5.1796164e+30
0	5.18260005e+30
0	5.1855837e+30
0	5.18856735e+30
0	5.191551e+30
0	5.19453465e+30
0	5.1975183e+30
0	5.20050195e+30
0	5.2034856e+30
0	5.20646925e+30
0	5.2094529e+30
0	5.21243655e+30
0	5.2154202e+30
0	5.21840385e+30
0	5.2213875e+30
0	5.22437115e+30
0	5.2273548e+30
0	5.23033845e+30
0	5.2333221e+30
0	5.23630575e+30
0	5.2392894e+30
0	5.24227305e+30
0	5.2452567e+30
0	5.24824035e+30
0	5.251224e+30
0	5.25420765e+30
0	5.2571913e+30
0	5.26017495e+30
0	5.2631586e+30
0	5.26614225e+30
0	5.2691259e+30
0	5.27210955e+30
0	5.2750932e+30
0	5.27807685e+30
0	5.2810605e+30
0	5.28404415e+30
0	5.2870278e+30
0	5.29001145e+30
0	5.2929951e+30
0	5.29597875e+30
0	5.2989624e+30
0	5.30194605e+30
0	5.3049297e+30
0	5.30791335e+30
0	5.310897e+30
0	5.31388065e+30
0	5.3168643e+30
0	5.31984795e+30
0	5.3228316e+30
0	5.32581525e+30
0	5.3287989e+30
0	5.33178255e+30
0	5.3347662e+30
0	5.33774985e+30
0	5.3407335e+30
0	5.34371715e+30
0	5.3467008e+30
0	5.34968445e+30
0	5.3526681e+30
0	5.35565175e+30
0	5.3586354e+30
0	5.36161905e+30
0	5.3646027e+30
0	5.36758635e+30
0	5.37057e+30
0	5.37355365e+30
0	5.3765373e+30
0	5.37952095e+30
0	5.3825046e+30
0	5.38548825e+30
0	5.3884719e+30
0	5.39145555e+30
0	5.3944392e+30
0	5.39742285e+30
0	5.4004065e+30
0	5.40339015e+30
0	5.4063738e+30
0	5.40935745e+30
0	5.4123411e+30
0	5.41532475e+30
0	5.4183084e+30
0	5.42129205e+30
0	5.4242757e+30
0	5.42725935e+30
0	5.430243e+30
0	5.43322665e+30
0	5.4362103e+30
0	5.43919395e+30
0	5.4421776e+30
0	5.44516125e+30
0	5.4481449e+30
0	5.45112855e+30
0	5.4541122e+30
0	5.45709585e+30
0	5.4600795e+30
0	5.46306315e+30
0	5.4660468e+30
0	5.46903045e+30
0	5.4720141e+30
0	5.47499775e+30
0	5.4779814e+30
0	5.48096505e+30
0	5.4839487e+30
0	5.48693235e+30
0	5.489916e+30
0	5.49289965e+30
0	5.4958833e+30
0	5.49886695e+30
0	5.5018506e+30
0	5.50483425e+30
0	5.5078179e+30
0	5.51080155e+30
0	5.5137852e+30
0	5.51676885e+30
0	5.5197525e+30
0	5.52273615e+30
0	5.5257198e+30
0	5.52870345e+30
0	5.5316871e+30
0	5.53467075e+30
0	5.5376544e+30
0	5.54063805e+30
0	5.5436217e+30
0	5.54660535e+30
0	5.549589e+30
0	5.55257265e+30
0	5.5555563e+30
0	5.55853995e+30
0	5.5615236e+30
0	5.56450725e+30
0	5.5674909e+30
0	5.57047455e+30
0	5.5734582e+30
0	5.57644185e+30
0	5.5794255e+30
0	5.58240915e+30
0	5.5853928e+30
0	5.58837645e+30
0	5.5913601e+30
0	5.59434375e+30
0	5.5973274e+30
0	5.60031105e+30
0	5.6032947e+30
0	5.60627835e+30
0	5.609262e+30
0	5.61224565e+30
0	5.6152293e+30
0	5.61821295e+30
0	5.6211966e+30
0	5.62418025e+30
0	5.6271639e+30
0	5.63014755e+30
0	5.6331312e+30
0	5.63611485e+30
0	5.6390985e+30
0	5.64208215e+30
0	5.6450658e+30
0	5.64804945e+30
0	5.6510331e+30
0	5.65401675e+30
0	5.6570004e+30
0	5.65998405e+30
0	5.6629677e+30
0	5.66595135e+30
0	5.668935e+30
0	5.67191865e+30
0	5.6749023e+30
0	5.67788595e+30
0	5.6808696e+30
0	5.68385325e+30
0	5.6868369e+30
0	5.68982055e+30
0	5.6928042e+30
0	5.69578785e+30
0	5.6987715e+30
0	5.70175515e+30
0	5.7047388e+30
0	5.70772245e+30
0	5.7107061e+30
0	5.71368975e+30
0	5.7166734e+30
0	5.71965705e+30
0	5.7226407e+30
0	5.72562435e+30
0	5.728608e+30
0	5.73159165e+30
0	5.7345753e+30
0	5.73755895e+30
0	5.7405426e+30
0	5.74352625e+30
0	5.7465099e+30
0	5.74949355e+30
0	5.7524772e+30
0	5.75546085e+30
0	5.7584445e+30
0	5.76142815e+30
0	5.7644118e+30
0	5.76739545e+30
0	5.7703791e+30
0	5.77336275e+30
0	5.7763464e+30
0	5.77933005e+30
0	5.7823137e+30
0	5.78529735e+30
0	5.788281e+30
0	5.79126465e+30
0	5.7942483e+30
0	5.79723195e+30
0	5.8002156e+30
0	5.80319925e+30
0	5.8061829e+30
0	5.80916655e+30
0	5.8121502e+30
0	5.81513385e+30
0	5.8181175e+30
0	5.82110115e+30
0	5.8240848e+30
0	5.82706845e+30
0	5.8300521e+30
0	5.83303575e+30
0	5.8360194e+30
0	5.83900305e+30
0	5.8419867e+30
0	5.84497035e+30
0	5.847954e+30
0	5.85093765e+30
0	5.8539213e+30
0	5.85690495e+30
0	5.8598886e+30
0	5.86287225e+30
0	5.8658559e+30
0	5.86883955e+30
0	5.8718232e+30
0	5.87480685e+30
0	5.8777905e+30
0	5.88077415e+30
0	5.8837578e+30
0	5.88674145e+30
0	5.8897251e+30
0	5.89270875e+30
0	5.8956924e+30
0	5.89867605e+30
0	5.9016597e+30
0	5.90464335e+30
0	5.907627e+30
0	5.91061065e+30
0	5.9135943e+30
0	5.91657795e+30
0	5.9195616e+30
0	5.92254525e+30
0	5.9255289e+30
0	5.92851255e+30
0	5.9314962e+30
0	5.93447985e+30
0	5.9374635e+30
0	5.94044715e+30
0	5.9434308e+30
0	5.94641445e+30
0	5.9493981e+30
0	5.95238175e+30
0	5.9553654e+30
0	5.95834905e+30
0	5.9613327e+30
0	5.96431635e+30
0	5.9673e+30
