<?xml version="1.0" encoding="UTF-8" standalone="no"?>
<svg
   xmlns:dc="http://purl.org/dc/elements/1.1/"
   xmlns:cc="http://creativecommons.org/ns#"
   xmlns:rdf="http://www.w3.org/1999/02/22-rdf-syntax-ns#"
   xmlns:svg="http://www.w3.org/2000/svg"
   xmlns="http://www.w3.org/2000/svg"
   xmlns:sodipodi="http://sodipodi.sourceforge.net/DTD/sodipodi-0.dtd"
   xmlns:inkscape="http://www.inkscape.org/namespaces/inkscape"
   version="1.0"
   inkscape:output_extension="org.inkscape.output.svg.inkscape"
   sodipodi:docname="Explicit_method-stencil.svg"
   inkscape:version="1.0 (4035a4fb49, 2020-05-01)"
   sodipodi:version="0.32"
   id="svg2"
   viewBox="1635 3045 4033 2235"
   height="161.73138"
   width="264.91199">
  <metadata
     id="metadata39">
    <rdf:RDF>
      <cc:Work
         rdf:about="">
        <dc:format>image/svg+xml</dc:format>
        <dc:type
           rdf:resource="http://purl.org/dc/dcmitype/StillImage" />
      </cc:Work>
    </rdf:RDF>
  </metadata>
  <defs
     id="defs37">
    <inkscape:perspective
       id="perspective22"
       inkscape:persp3d-origin="132.45599 : 53.910461 : 1"
       inkscape:vp_z="264.91199 : 80.865692 : 1"
       inkscape:vp_y="0 : 1000 : 0"
       inkscape:vp_x="0 : 80.865692 : 1"
       sodipodi:type="inkscape:persp3d" />
  </defs>
  <sodipodi:namedview
     inkscape:window-maximized="0"
     inkscape:snap-object-midpoints="true"
     inkscape:snap-center="true"
     inkscape:snap-bbox-midpoints="true"
     inkscape:snap-bbox="true"
     inkscape:document-rotation="0"
     inkscape:current-layer="g4"
     inkscape:window-y="50"
     inkscape:window-x="20"
     inkscape:cy="100.31929"
     inkscape:cx="121.92869"
     inkscape:zoom="2.1568628"
     showgrid="false"
     id="base"
     pagecolor="#ffffff"
     bordercolor="#666666"
     borderopacity="1.0"
     objecttolerance="10.0"
     gridtolerance="10.0"
     guidetolerance="10.0"
     inkscape:pageopacity="0.0"
     inkscape:pageshadow="2"
     inkscape:window-width="1880"
     inkscape:window-height="1010">
    <inkscape:grid
       empspacing="0"
       empopacity="0.4"
       opacity="0.2"
       empcolor="#0000ff"
       color="#0000ff"
       spacingy="0.1px"
       spacingx="0.1px"
       originy="0px"
       originx="0px"
       type="xygrid"
       id="GridFromPre046Settings" />
  </sodipodi:namedview>
  <g
     transform="translate(-304.29395,-39.539278)"
     id="g4"
     style="fill:none;stroke:#000000;stroke-width:0.025in">
    <polyline
       transform="matrix(0,1.1336844,-1.1336844,0,10673.018,-2007.4544)"
       id="polyline941"
       style="font-style:oblique;font-variant:normal;font-weight:normal;font-stretch:normal;font-size:228.288px;line-height:125%;font-family:'Bitstream Vera Sans Mono';text-align:start;writing-mode:lr-tb;text-anchor:start;fill:none;stroke:#000000;stroke-width:29.99572966;stroke-linecap:butt;stroke-linejoin:miter;stroke-miterlimit:4;stroke-dasharray:29.99572966, 59.99145931999999704;stroke-dashoffset:0;opacity:1;stroke-opacity:0.27891174"
       points="3600,4800 3600,3600 " />
    <polyline
       points="3600,4800 3600,3600 "
       style="font-style:oblique;font-variant:normal;font-weight:normal;font-stretch:normal;font-size:228.288px;line-height:125%;font-family:'Bitstream Vera Sans Mono';text-align:start;writing-mode:lr-tb;text-anchor:start;fill:none;stroke:#000000;stroke-width:29.99572966;stroke-linecap:butt;stroke-linejoin:miter;stroke-miterlimit:4;stroke-dasharray:29.99572966, 59.99145931999999704;stroke-dashoffset:0;opacity:1;stroke-opacity:0.27891174"
       id="polyline943"
       transform="matrix(1.1336844,0,0,1.1336844,2510.4905,-1922.428)" />
    <circle
       id="circle945"
       style="font-style:oblique;font-variant:normal;font-weight:normal;font-stretch:normal;font-size:228.288px;line-height:125%;font-family:'Bitstream Vera Sans Mono';text-align:start;writing-mode:lr-tb;text-anchor:start;fill:#ffffff;fill-opacity:1;stroke:#000000;stroke-width:34.0105;opacity:1;stroke-opacity:0.27891174"
       r="85.026329"
       cy="2073.8093"
       cx="6591.7544" />
    <polyline
       points="3600,4800 3600,3600 "
       style="font-style:oblique;font-variant:normal;font-weight:normal;font-stretch:normal;font-size:228.288px;line-height:125%;font-family:'Bitstream Vera Sans Mono';text-align:start;writing-mode:lr-tb;text-anchor:start;fill:none;stroke:#000000;stroke-width:29.99572966;stroke-linecap:butt;stroke-linejoin:miter;stroke-miterlimit:4;stroke-dasharray:29.99572966, 59.99145931999999704;stroke-dashoffset:0;opacity:1;stroke-opacity:0.27891174"
       id="polyline947"
       transform="matrix(0,1.1336844,-1.1336844,0,6591.7543,-2007.4544)" />
    <polyline
       transform="matrix(1.1336844,0,0,1.1336844,-2931.1947,-1922.428)"
       id="polyline949"
       style="font-style:oblique;font-variant:normal;font-weight:normal;font-stretch:normal;font-size:228.288px;line-height:125%;font-family:'Bitstream Vera Sans Mono';text-align:start;writing-mode:lr-tb;text-anchor:start;fill:none;stroke:#000000;stroke-width:29.99572966;stroke-linecap:butt;stroke-linejoin:miter;stroke-miterlimit:4;stroke-dasharray:29.99572966, 59.99145931999999704;stroke-dashoffset:0;opacity:1;stroke-opacity:0.27891174"
       points="3600,4800 3600,3600 " />
    <circle
       cx="1150.0691"
       cy="2073.8093"
       r="85.026329"
       style="font-style:oblique;font-variant:normal;font-weight:normal;font-stretch:normal;font-size:228.288px;line-height:125%;font-family:'Bitstream Vera Sans Mono';text-align:start;writing-mode:lr-tb;text-anchor:start;fill:#ffffff;fill-opacity:1;stroke:#000000;stroke-width:34.0105;opacity:1;stroke-opacity:0.27891174"
       id="circle951" />
    <polyline
       points="3600,4800 3600,3600 "
       style="font-style:oblique;font-variant:normal;font-weight:normal;font-stretch:normal;font-size:228.288px;line-height:125%;font-family:'Bitstream Vera Sans Mono';text-align:start;writing-mode:lr-tb;text-anchor:start;fill:none;stroke:#000000;stroke-width:29.99572966;stroke-linecap:butt;stroke-linejoin:miter;stroke-miterlimit:4;stroke-dasharray:29.99572966, 59.99145931999999704;stroke-dashoffset:0;opacity:1;stroke-opacity:0.27891174"
       id="polyline953"
       transform="matrix(1.1336844,0,0,1.1336844,-210.35213,-1922.428)" />
    <polyline
       points="3600,4800 3600,3600 "
       style="font-style:oblique;font-variant:normal;font-weight:normal;font-stretch:normal;font-size:228.288px;line-height:125%;font-family:'Bitstream Vera Sans Mono';text-align:start;writing-mode:lr-tb;text-anchor:start;fill:none;stroke:#000000;stroke-width:29.99572966;stroke-linecap:butt;stroke-linejoin:miter;stroke-miterlimit:4;stroke-dasharray:29.99572966, 59.99145931999999704;stroke-dashoffset:0;opacity:1;stroke-opacity:0.27891174"
       id="polyline955"
       transform="matrix(0,1.1336844,-1.1336844,0,9312.5969,-2007.4544)" />
    <polyline
       transform="matrix(0,1.1336844,-1.1336844,0,7952.1756,-2007.4544)"
       id="polyline957"
       style="font-style:oblique;font-variant:normal;font-weight:normal;font-stretch:normal;font-size:228.288px;line-height:125%;font-family:'Bitstream Vera Sans Mono';text-align:start;writing-mode:lr-tb;text-anchor:start;fill:none;stroke:#000000;stroke-width:29.99572966;stroke-linecap:butt;stroke-linejoin:miter;stroke-miterlimit:4;stroke-dasharray:29.99572966, 59.99145931999999704;stroke-dashoffset:0;opacity:1;stroke-opacity:0.27891174"
       points="3600,4800 3600,3600 " />
    <circle
       cx="3870.9116"
       cy="2073.8096"
       r="85.026329"
       style="font-style:oblique;font-variant:normal;font-weight:normal;font-stretch:normal;font-size:228.288px;line-height:125%;font-family:'Bitstream Vera Sans Mono';text-align:start;writing-mode:lr-tb;text-anchor:start;fill:#ffffff;fill-opacity:1;stroke:#000000;stroke-width:34.0105;opacity:1;stroke-opacity:0.27891174"
       id="circle959" />
    <polyline
       transform="matrix(1.1336844,0,0,1.1336844,1150.0692,-1922.428)"
       id="polyline961"
       style="font-style:oblique;font-variant:normal;font-weight:normal;font-stretch:normal;font-size:228.288px;line-height:125%;font-family:'Bitstream Vera Sans Mono';text-align:start;writing-mode:lr-tb;text-anchor:start;fill:none;stroke:#000000;stroke-width:29.99572966;stroke-linecap:butt;stroke-linejoin:miter;stroke-miterlimit:4;stroke-dasharray:29.99572966, 59.99145931999999704;stroke-dashoffset:0;opacity:1;stroke-opacity:0.27891174"
       points="3600,4800 3600,3600 " />
    <polyline
       points="3600,4800 3600,3600 "
       style="font-style:oblique;font-variant:normal;font-weight:normal;font-stretch:normal;font-size:228.288px;line-height:125%;font-family:'Bitstream Vera Sans Mono';text-align:start;writing-mode:lr-tb;text-anchor:start;fill:none;stroke:#000000;stroke-width:29.99572966;stroke-linecap:butt;stroke-linejoin:miter;stroke-miterlimit:4;stroke-dasharray:29.99572966, 59.99145931999999704;stroke-dashoffset:0;opacity:1;stroke-opacity:0.27891174"
       id="polyline963"
       transform="matrix(1.1336844,0,0,1.1336844,-1570.7734,-1922.428)" />
    <circle
       id="circle965"
       style="font-style:oblique;font-variant:normal;font-weight:normal;font-stretch:normal;font-size:228.288px;line-height:125%;font-family:'Bitstream Vera Sans Mono';text-align:start;writing-mode:lr-tb;text-anchor:start;fill:#ffffff;fill-opacity:1;stroke:#000000;stroke-width:34.0105;opacity:1;stroke-opacity:0.27891174"
       r="85.026329"
       cy="2073.8093"
       cx="2510.4902" />
    <circle
       cx="5231.333"
       cy="2073.8093"
       r="85.026329"
       style="font-style:oblique;font-variant:normal;font-weight:normal;font-stretch:normal;font-size:228.288px;line-height:125%;font-family:'Bitstream Vera Sans Mono';text-align:start;writing-mode:lr-tb;text-anchor:start;fill:#ffffff;fill-opacity:1;stroke:#000000;stroke-width:34.0105;opacity:1;stroke-opacity:0.27891174"
       id="circle967" />
    <polyline
       points="2400,4800 4800,4800 "
       style="font-style:oblique;font-variant:normal;font-weight:normal;font-stretch:normal;font-size:228.288px;line-height:125%;font-family:'Bitstream Vera Sans Mono';text-align:start;writing-mode:lr-tb;text-anchor:start;fill:none;stroke:#000000;stroke-width:29.99572966;stroke-linecap:butt;stroke-linejoin:miter;stroke-miterlimit:4;stroke-dasharray:29.99572966, 59.99145931999999704;stroke-dashoffset:0;opacity:1;stroke-opacity:0.27891174"
       id="polyline931"
       transform="matrix(1.1336844,0,0,1.1336844,1150.0693,-476.98039)" />
    <polyline
       points="3600,4800 3600,3600 "
       style="font-style:oblique;font-variant:normal;font-weight:normal;font-stretch:normal;font-size:228.288px;line-height:125%;font-family:'Bitstream Vera Sans Mono';text-align:start;writing-mode:lr-tb;text-anchor:start;fill:none;stroke:#000000;stroke-width:30.00000066;stroke-linecap:butt;stroke-linejoin:miter;opacity:1;stroke-miterlimit:4;stroke-dasharray:30.00000066, 90.00000212000000488;stroke-dashoffset:0;stroke-opacity:0.27891174"
       id="polyline933"
       transform="matrix(0,1.1336844,-1.1336844,0,10673.018,-562.00672)" />
    <polyline
       transform="matrix(1.1336844,0,0,1.1336844,2510.4906,-476.98039)"
       id="polyline935"
       style="font-style:oblique;font-variant:normal;font-weight:normal;font-stretch:normal;font-size:228.288px;line-height:125%;font-family:'Bitstream Vera Sans Mono';text-align:start;writing-mode:lr-tb;text-anchor:start;fill:none;stroke:#000000;stroke-width:29.99572966;stroke-linecap:butt;stroke-linejoin:miter;stroke-miterlimit:4;stroke-dasharray:29.99572966, 59.99145931999999704;stroke-dashoffset:0;opacity:1;stroke-opacity:0.27891174"
       points="3600,4800 3600,3600 " />
    <circle
       cx="6591.7544"
       cy="4964.7046"
       r="85.026329"
       style="font-style:oblique;font-variant:normal;font-weight:normal;font-stretch:normal;font-size:228.288px;line-height:125%;font-family:'Bitstream Vera Sans Mono';text-align:start;writing-mode:lr-tb;text-anchor:start;fill:#ffffff;fill-opacity:1;stroke:#000000;stroke-width:34.0105;opacity:1;stroke-opacity:0.27891174"
       id="circle937" />
    <circle
       cx="6591.7544"
       cy="3519.2571"
       r="85.026329"
       style="font-style:oblique;font-variant:normal;font-weight:normal;font-stretch:normal;font-size:228.288px;line-height:125%;font-family:'Bitstream Vera Sans Mono';text-align:start;writing-mode:lr-tb;text-anchor:start;fill:#ffffff;fill-opacity:1;stroke:#000000;stroke-width:34.0105;opacity:1;stroke-opacity:0.27891174"
       id="circle939" />
    <polyline
       points="2400,4800 4800,4800 "
       style="font-style:oblique;font-variant:normal;font-weight:normal;font-stretch:normal;font-size:228.288px;line-height:125%;font-family:'Bitstream Vera Sans Mono';text-align:start;writing-mode:lr-tb;text-anchor:start;fill:none;stroke:#000000;stroke-width:29.99572966;stroke-linecap:butt;stroke-linejoin:miter;stroke-miterlimit:4;stroke-dasharray:29.99572966, 59.99145931999999704;stroke-dashoffset:0;opacity:1;stroke-opacity:0.27891174"
       id="polyline921"
       transform="matrix(1.1336844,0,0,1.1336844,-1570.7733,-476.98039)" />
    <polyline
       transform="matrix(0,1.1336844,-1.1336844,0,6591.7544,-562.00672)"
       id="polyline923"
       style="font-style:oblique;font-variant:normal;font-weight:normal;font-stretch:normal;font-size:228.288px;line-height:125%;font-family:'Bitstream Vera Sans Mono';text-align:start;writing-mode:lr-tb;text-anchor:start;fill:none;stroke:#000000;stroke-width:29.99572966;stroke-linecap:butt;stroke-linejoin:miter;opacity:1;stroke-miterlimit:4;stroke-dasharray:29.99572966, 89.98718911000000276;stroke-dashoffset:0;stroke-opacity:0.27891174"
       points="3600,4800 3600,3600 " />
    <polyline
       points="3600,4800 3600,3600 "
       style="font-style:oblique;font-variant:normal;font-weight:normal;font-stretch:normal;font-size:228.288px;line-height:125%;font-family:'Bitstream Vera Sans Mono';text-align:start;writing-mode:lr-tb;text-anchor:start;fill:none;stroke:#000000;stroke-width:29.99572966;stroke-linecap:butt;stroke-linejoin:miter;stroke-miterlimit:4;stroke-dasharray:29.99572966, 59.99145931999999704;stroke-dashoffset:0;opacity:1;stroke-opacity:0.27891174"
       id="polyline925"
       transform="matrix(1.1336844,0,0,1.1336844,-2931.1946,-476.98039)" />
    <circle
       cx="1150.0693"
       cy="4964.7046"
       r="85.026329"
       style="font-style:oblique;font-variant:normal;font-weight:normal;font-stretch:normal;font-size:228.288px;line-height:125%;font-family:'Bitstream Vera Sans Mono';text-align:start;writing-mode:lr-tb;text-anchor:start;fill:#ffffff;fill-opacity:1;stroke:#000000;stroke-width:34.0105;opacity:1;stroke-opacity:0.27891174"
       id="circle927" />
    <circle
       id="circle929"
       style="font-style:oblique;font-variant:normal;font-weight:normal;font-stretch:normal;font-size:228.288px;line-height:125%;font-family:'Bitstream Vera Sans Mono';text-align:start;writing-mode:lr-tb;text-anchor:start;fill:#ffffff;fill-opacity:1;stroke:#000000;stroke-width:34.0105;opacity:1;stroke-opacity:0.27891174"
       r="85.026329"
       cy="3519.2571"
       cx="1150.0692" />
    <polyline
       transform="matrix(1.1336844,0,0,1.1336844,-210.352,-476.98039)"
       id="polyline10"
       style="fill:#555500;stroke:#000000;stroke-width:30;stroke-linecap:butt;stroke-linejoin:miter;font-family:Bitstream Vera Sans Mono;font-weight:normal;font-style:oblique;font-stretch:normal;font-variant:normal;font-size:228.28814657px;text-anchor:start;text-align:start;writing-mode:lr;line-height:125%"
       points="2400,4800 4800,4800 " />
    <!-- Line -->
    <polyline
       transform="matrix(1.1336844,0,0,1.1336844,-210.352,-476.98039)"
       id="polyline6"
       style="fill:#555500;stroke:#000000;stroke-width:30;stroke-linecap:butt;stroke-linejoin:miter;font-family:Bitstream Vera Sans Mono;font-weight:normal;font-style:oblique;font-stretch:normal;font-variant:normal;font-size:228.28814657px;text-anchor:start;text-align:start;writing-mode:lr;line-height:125%"
       points="3600,4800 3600,3600 " />
    <!-- Line -->
    <!-- Line -->
    <!-- Text -->
    <!-- Text -->
    <!-- Text -->
    <!-- Text -->
    <!-- Text -->
    <text
       style="font-style:oblique;font-variant:normal;font-weight:normal;font-stretch:normal;font-size:258.807px;line-height:0%;font-family:'Bitstream Vera Sans Mono';text-align:start;writing-mode:lr-tb;text-anchor:start;fill:#000000;stroke:#000000;stroke-width:2.55079"
       id="text20"
       font-size="240"
       font-weight="normal"
       font-style="normal"
       y="3262.4165"
       x="3446.2056"
       xml:space="preserve">n,m+1</text>
    <!-- Text -->
    <!-- Circle -->
    <circle
       transform="matrix(1.1336844,0,0,1.1336844,-210.352,-476.98039)"
       sodipodi:ry="75"
       sodipodi:rx="75"
       sodipodi:cy="4800"
       sodipodi:cx="3600"
       id="circle24"
       style="fill:#be0000;stroke:#000000;stroke-width:30;font-family:Bitstream Vera Sans Mono;font-weight:normal;font-style:oblique;font-stretch:normal;font-variant:normal;font-size:228.28814657px;text-anchor:start;text-align:start;writing-mode:lr;line-height:125%;fill-opacity:1"
       r="75"
       cy="4800"
       cx="3600" />
    <polyline
       transform="matrix(0,1.1336844,-1.1336844,0,9312.597,-562.00672)"
       id="polyline913"
       style="font-style:oblique;font-variant:normal;font-weight:normal;font-stretch:normal;font-size:228.288px;line-height:125%;font-family:'Bitstream Vera Sans Mono';text-align:start;writing-mode:lr-tb;text-anchor:start;fill:none;stroke:#000000;stroke-width:29.99572966;stroke-linecap:butt;stroke-linejoin:miter;stroke-miterlimit:4;stroke-dasharray:29.99572966, 59.99145931999999704;stroke-dashoffset:0;opacity:1;stroke-opacity:0.27891174"
       points="3600,4800 3600,3600 " />
    <polyline
       points="3600,4800 3600,3600 "
       style="font-style:oblique;font-variant:normal;font-weight:normal;font-stretch:normal;font-size:228.288px;line-height:125%;font-family:'Bitstream Vera Sans Mono';text-align:start;writing-mode:lr-tb;text-anchor:start;fill:none;stroke:#000000;stroke-width:29.99572966;stroke-linecap:butt;stroke-linejoin:miter;stroke-miterlimit:4;stroke-dasharray:29.99572966, 59.99145931999999704;stroke-dashoffset:0;opacity:1;stroke-opacity:0.27891174"
       id="polyline911"
       transform="matrix(0,1.1336844,-1.1336844,0,7952.1757,-562.00672)" />
    <!-- Circle -->
    <circle
       transform="matrix(1.1336844,0,0,1.1336844,-210.352,-476.98039)"
       sodipodi:ry="75"
       sodipodi:rx="75"
       sodipodi:cy="3525"
       sodipodi:cx="3600"
       id="circle26"
       style="fill:#be0000;stroke:#000000;stroke-width:30;font-family:Bitstream Vera Sans Mono;font-weight:normal;font-style:oblique;font-stretch:normal;font-variant:normal;font-size:228.28814657px;text-anchor:start;text-align:start;writing-mode:lr;line-height:125%;fill-opacity:1"
       r="75"
       cy="3525"
       cx="3600" />
    <polyline
       points="3600,4800 3600,3600 "
       style="font-style:oblique;font-variant:normal;font-weight:normal;font-stretch:normal;font-size:228.288px;line-height:125%;font-family:'Bitstream Vera Sans Mono';text-align:start;writing-mode:lr-tb;text-anchor:start;fill:none;stroke:#000000;stroke-width:29.99572966;stroke-linecap:butt;stroke-linejoin:miter;stroke-miterlimit:4;stroke-dasharray:29.99572966, 59.99145931999999704;stroke-dashoffset:0;opacity:1;stroke-opacity:0.27891174"
       id="polyline903"
       transform="matrix(1.1336844,0,0,1.1336844,1150.0693,-476.98039)" />
    <!-- Circle -->
    <!-- Circle -->
    <!-- Circle -->
    <!-- Circle -->
    <circle
       transform="matrix(1.1336844,0,0,1.1336844,-210.352,-476.98039)"
       sodipodi:ry="75"
       sodipodi:rx="75"
       sodipodi:cy="4800"
       sodipodi:cx="4800"
       id="circle34"
       style="fill:#be0000;stroke:#000000;stroke-width:30;font-family:Bitstream Vera Sans Mono;font-weight:normal;font-style:oblique;font-stretch:normal;font-variant:normal;font-size:228.28814657px;text-anchor:start;text-align:start;writing-mode:lr;line-height:125%;fill-opacity:1"
       r="75"
       cy="4800"
       cx="4800" />
    <text
       style="font-style:oblique;font-variant:normal;font-weight:normal;font-stretch:normal;font-size:258.807px;line-height:0%;font-family:'Bitstream Vera Sans Mono';text-align:start;writing-mode:lr-tb;text-anchor:start;fill:#000000;stroke:#000000;stroke-width:2.55079"
       id="text12"
       font-size="240"
       font-weight="normal"
       font-style="normal"
       y="5364.106"
       x="2146.7063"
       xml:space="preserve">n-1,m</text>
    <text
       style="font-style:oblique;font-variant:normal;font-weight:normal;font-stretch:normal;font-size:258.807px;line-height:0%;font-family:'Bitstream Vera Sans Mono';text-align:start;writing-mode:lr-tb;text-anchor:start;fill:#000000;stroke:#000000;stroke-width:2.55079"
       id="text14"
       font-size="240"
       font-weight="normal"
       font-style="normal"
       y="5338.2358"
       x="3672.7891"
       xml:space="preserve">n,m</text>
    <text
       style="font-style:oblique;font-variant:normal;font-weight:normal;font-stretch:normal;font-size:258.807px;line-height:0%;font-family:'Bitstream Vera Sans Mono';text-align:start;writing-mode:lr-tb;text-anchor:start;fill:#000000;stroke:#000000;stroke-width:2.55079"
       id="text16"
       font-size="240"
       font-weight="normal"
       font-style="normal"
       y="5338.2358"
       x="4898.0684"
       xml:space="preserve">n+1,m</text>
    <polyline
       transform="matrix(1.1336844,0,0,1.1336844,-1570.7733,-476.98039)"
       id="polyline905"
       style="font-style:oblique;font-variant:normal;font-weight:normal;font-stretch:normal;font-size:228.288px;line-height:125%;font-family:'Bitstream Vera Sans Mono';text-align:start;writing-mode:lr-tb;text-anchor:start;fill:none;stroke:#000000;stroke-width:29.99572966;stroke-linecap:butt;stroke-linejoin:miter;stroke-miterlimit:4;stroke-dasharray:29.99572966, 59.99145931999999704;stroke-dashoffset:0;opacity:1;stroke-opacity:0.27891174"
       points="3600,4800 3600,3600 " />
    <circle
       transform="matrix(1.1336844,0,0,1.1336844,-210.352,-476.98039)"
       sodipodi:ry="75"
       sodipodi:rx="75"
       sodipodi:cy="4800"
       sodipodi:cx="2400"
       id="circle32"
       style="fill:#be0000;stroke:#000000;stroke-width:30;font-family:Bitstream Vera Sans Mono;font-weight:normal;font-style:oblique;font-stretch:normal;font-variant:normal;font-size:228.28814657px;text-anchor:start;text-align:start;writing-mode:lr;line-height:125%;fill-opacity:1"
       r="75"
       cy="4800"
       cx="2400" />
    <circle
       cx="2510.4905"
       cy="3519.2571"
       r="85.026329"
       style="font-style:oblique;font-variant:normal;font-weight:normal;font-stretch:normal;font-size:228.288px;line-height:125%;font-family:'Bitstream Vera Sans Mono';text-align:start;writing-mode:lr-tb;text-anchor:start;fill:#ffffff;fill-opacity:1;stroke:#000000;stroke-width:34.0105;opacity:1;stroke-opacity:0.27891174"
       id="circle907" />
    <circle
       id="circle909"
       style="font-style:oblique;font-variant:normal;font-weight:normal;font-stretch:normal;font-size:228.288px;line-height:125%;font-family:'Bitstream Vera Sans Mono';text-align:start;writing-mode:lr-tb;text-anchor:start;fill:#ffffff;fill-opacity:1;stroke:#000000;stroke-width:34.0105;opacity:1;stroke-opacity:0.27891174"
       r="85.026329"
       cy="3519.2571"
       cx="5231.333" />
  </g>
</svg>
